{
    "app_categories": {
        "Connectivity": "網絡",
        "Development": "開發",
        "Games": "遊戲",
        "Graphics": "繪圖",
        "Internet": "互聯網",
        "Money": "財經",
        "Multimedia": "多媒體",
        "Navigation": "導航",
        "Phone & SMS": "通話與短訊",
        "Reading": "閱讀",
        "Science & Education": "科學與教育",
        "Security": "安全與保安",
        "Sports & Health": "體育與健康",
        "System": "系統",
        "Theming": "主題",
        "Time": "時間",
        "Writing": "文書",
        "show_all_packages": "顯示所有 %d"
    },
    "sidebars": {
        "donate": {
            "paypal_alt": "透過 PayPal 捐贈",
            "via_bank_transfer": "銀行轉帳"
        },
        "lang": {
            "change": "變更"
        },
        "search": {
            "search": "搜索"
        }
    }
}
